May God shower his blessing on you. 
All the best.❤

Congrats!!!

🎈🎈🎈🎂

መልካም ዕድል፡፡ 
 

                                       Date 7/2/2012


HI✌!! Team group_b17 we've got it all under control, so just relax and get well.








